%YAML 1.1
%TAG !u! tag:unity3d.com,2011:
--- !u!114 &11400000
MonoBehaviour:
  m_ObjectHideFlags: 0
  m_CorrespondingSourceObject: {fileID: 0}
  m_PrefabInternal: {fileID: 0}
  m_GameObject: {fileID: 0}
  m_Enabled: 1
  m_EditorHideFlags: 0
  m_Script: {fileID: 11500000, guid: 6a656ad26dbb2bb428f54c13016213d8, type: 3}
  m_Name: SmallCoints
  m_EditorClassIdentifier: 
  m_name: Small Coints
  m_icon: {fileID: 21300000, guid: 16264090f5e803a488d61b446cf4521e, type: 3}
  m_goodCurrency: 0
  m_goodAmount: 100
  m_price: 0.99
