%YAML 1.1
%TAG !u! tag:unity3d.com,2011:
--- !u!114 &11400000
MonoBehaviour:
  m_ObjectHideFlags: 0
  m_CorrespondingSourceObject: {fileID: 0}
  m_PrefabInternal: {fileID: 0}
  m_GameObject: {fileID: 0}
  m_Enabled: 1
  m_EditorHideFlags: 0
  m_Script: {fileID: 11500000, guid: 7f20d661dcc081b42889bc73a68b994f, type: 3}
  m_Name: SteelBonusBallistaAsset
  m_EditorClassIdentifier: 
  m_icon: {fileID: 21300000, guid: 6233f05d1146a1a43a9258b1359d2e59, type: 3}
  m_price: 450
  m_duration: 10
  m_cooldown: 20
  m_type: 2
